spi_waveform.vcd
$date
	Mon Jun  2 22:54:07 2025
$end
$version
	Icarus Verilog
$end
$timescale
	1ps
$end
$scope module tb_top $end
$var wire 1 ! response_ready $end
$var wire 32 " out_data_B [31:0] $end
$var wire 32 # out_data_A [31:0] $end
$var wire 1 $ done_B_to_A $end
$var wire 1 % done_A_to_B $end
$var reg 1 & clk $end
$var reg 32 ' expected_response [31:0] $end
$var reg 32 ( expected_send [31:0] $end
$var reg 32 ) in_data_A [31:0] $end
$var reg 1 * rst_n $end
$scope function random_float32 $end
$var reg 1 + dummy $end
$var reg 8 , exponent [7:0] $end
$var reg 23 - mantissa [22:0] $end
$var reg 1 . sign $end
$upscope $end
$scope module uut $end
$var wire 1 & clk $end
$var wire 1 % done_A_to_B $end
$var wire 32 / in_data_A [31:0] $end
$var wire 1 * rst_n $end
$var wire 1 0 sclk $end
$var wire 1 ! response_ready $end
$var wire 32 1 out_data_B [31:0] $end
$var wire 32 2 out_data_A [31:0] $end
$var wire 1 3 mosi $end
$var wire 1 4 miso $end
$var wire 1 $ done_B_to_A $end
$var wire 1 5 cs_n $end
$scope module u_device_a $end
$var wire 1 & clk $end
$var wire 1 $ done_B_to_A $end
$var wire 32 6 in_data [31:0] $end
$var wire 32 7 out_data [31:0] $end
$var wire 1 * rst_n $end
$var wire 1 8 sclk_rising $end
$var wire 1 0 sclk $end
$var wire 1 ! response_ready $end
$var wire 1 3 mosi $end
$var wire 1 4 miso $end
$var wire 1 5 cs_n $end
$var wire 1 9 busy $end
$var parameter 4 : DONE $end
$var parameter 4 ; IDLE $end
$var parameter 4 < LOAD_DUMMY $end
$var parameter 4 = RECEIVE $end
$var parameter 4 > SEND_PHASE1 $end
$var parameter 4 ? SEND_PHASE2 $end
$var parameter 4 @ WAIT1 $end
$var parameter 4 A WAIT_RESP $end
$var reg 6 B bit_cnt [5:0] $end
$var reg 1 C done $end
$var reg 1 D hold_cs $end
$var reg 32 E rx_shift [31:0] $end
$var reg 1 F sclk_d $end
$var reg 1 G start $end
$var reg 4 H state [3:0] $end
$var reg 32 I tx_data [31:0] $end
$scope module u_spi_master $end
$var wire 1 & clk $end
$var wire 32 J data_in [31:0] $end
$var wire 1 D hold_cs $end
$var wire 1 * rst_n $end
$var wire 1 G start $end
$var parameter 2 K ASSERT $end
$var parameter 2 L DONE $end
$var parameter 2 M IDLE $end
$var parameter 2 N TRANSFER $end
$var reg 6 O bit_cnt [5:0] $end
$var reg 1 9 busy $end
$var reg 1 5 cs_n $end
$var reg 1 3 mosi $end
$var reg 1 0 sclk $end
$var reg 32 P shift_reg [31:0] $end
$var reg 2 Q state [1:0] $end
$upscope $end
$upscope $end
$scope module u_device_b $end
$var wire 1 & clk $end
$var wire 1 5 cs_n $end
$var wire 1 3 mosi $end
$var wire 32 R out_data [31:0] $end
$var wire 1 ! response_ready $end
$var wire 1 * rst_n $end
$var wire 1 0 sclk $end
$var wire 1 S valid_wire $end
$var wire 1 T response_ready_wire $end
$var wire 1 4 miso $end
$var wire 32 U data_out_wire [31:0] $end
$var reg 32 V data_buf [31:0] $end
$scope module u_spi_slave $end
$var wire 1 & clk $end
$var wire 1 5 cs_n $end
$var wire 1 3 mosi $end
$var wire 1 * rst_n $end
$var wire 1 0 sclk $end
$var wire 1 W sclk_falling $end
$var wire 1 X sclk_rising $end
$var wire 1 4 miso $end
$var reg 6 Y bit_cnt_rx [5:0] $end
$var reg 32 Z data_out [31:0] $end
$var reg 1 T response_ready $end
$var reg 1 [ sclk_d $end
$var reg 32 \ shift_rx [31:0] $end
$var reg 32 ] shift_tx [31:0] $end
$var reg 32 ^ tx_buffer [31:0] $end
$var reg 1 _ tx_load $end
$var reg 1 ` tx_valid $end
$var reg 1 S valid $end
$upscope $end
$upscope $end
$upscope $end
$upscope $end
$enddefinitions $end
$comment Show the parameter values. $end
$dumpall
b10 N
b0 M
b11 L
b1 K
b11 A
b10 @
b101 ?
b1 >
b110 =
b100 <
b0 ;
b111 :
$end
#0
$dumpvars
0`
0_
b0 ^
b0 ]
b0 \
0[
b0 Z
b0 Y
0X
0W
b0 V
b0 U
0T
0S
b0 R
b0 Q
b0 P
b0 O
b0 J
b0 I
b0 H
0G
0F
b0 E
1D
0C
b0 B
09
08
b0 7
b0 6
15
04
03
b0 2
b0 1
00
b0 /
x.
bx -
bx ,
x+
0*
b0 )
bx (
bx '
0&
0%
0$
b0 #
b0 "
0!
$end
#10000
1&
#20000
0&
#30000
1&
#40000
0&
#50000
1&
#60000
0&
#70000
1&
#80000
0&
#90000
b1 H
b111111000000000100000010001001 I
b111111000000000100000010001001 J
b111111000000000100000010001001 )
b111111000000000100000010001001 /
b111111000000000100000010001001 6
b111111000000000100000010001010 '
b111111000000000100000010001001 (
0.
b100000010001001 -
b1111110 ,
0+
1*
1&
#100000
0&
#110000
b10 H
1G
1&
#120000
0&
#130000
b11 H
0G
b1 Q
b11111 O
b111111000000000100000010001001 P
1&
#140000
0&
#150000
1%
b10 Q
19
05
1&
#160000
0&
#170000
1X
18
10
1&
#180000
0&
#190000
1W
0X
08
b11110 O
00
1F
b1 Y
1[
1&
#200000
0&
#210000
1X
0W
18
0[
0F
10
1&
#220000
0&
#230000
1W
0X
08
b11101 O
00
1F
b10 Y
1[
1&
#240000
0&
#250000
1X
0W
0%
18
0[
0F
13
10
1&
#260000
0&
#270000
1W
0X
08
b11100 O
00
1F
b11 Y
b1 \
1[
1&
#280000
0&
#290000
1X
0W
18
0[
0F
10
1&
#300000
0&
#310000
1W
0X
08
b11011 O
00
1F
b100 Y
b11 \
1[
1&
#320000
0&
#330000
1X
0W
18
0[
0F
10
1&
#340000
0&
#350000
1W
0X
08
b11010 O
00
1F
b101 Y
b111 \
1[
1&
#360000
0&
#370000
1X
0W
18
0[
0F
10
1&
#380000
0&
#390000
1W
0X
08
b11001 O
00
1F
b110 Y
b1111 \
1[
1&
#400000
0&
#410000
1X
0W
18
0[
0F
10
1&
#420000
0&
#430000
1W
0X
08
b11000 O
00
1F
b111 Y
b11111 \
1[
1&
#440000
0&
#450000
1X
0W
18
0[
0F
10
1&
#460000
0&
#470000
1W
0X
08
b10111 O
00
1F
b1000 Y
b111111 \
1[
1&
#480000
0&
#490000
1X
0W
1%
18
0[
0F
03
10
1&
#500000
0&
#510000
1W
0X
08
b10110 O
00
1F
b1001 Y
b1111110 \
1[
1&
#520000
0&
#530000
1X
0W
18
0[
0F
10
1&
#540000
0&
#550000
1W
0X
08
b10101 O
00
1F
b1010 Y
b11111100 \
1[
1&
#560000
0&
#570000
1X
0W
18
0[
0F
10
1&
#580000
0&
#590000
1W
0X
08
b10100 O
00
1F
b1011 Y
b111111000 \
1[
1&
#600000
0&
#610000
1X
0W
18
0[
0F
10
1&
#620000
0&
#630000
1W
0X
08
b10011 O
00
1F
b1100 Y
b1111110000 \
1[
1&
#640000
0&
#650000
1X
0W
18
0[
0F
10
1&
#660000
0&
#670000
1W
0X
08
b10010 O
00
1F
b1101 Y
b11111100000 \
1[
1&
#680000
0&
#690000
1X
0W
18
0[
0F
10
1&
#700000
0&
#710000
1W
0X
08
b10001 O
00
1F
b1110 Y
b111111000000 \
1[
1&
#720000
0&
#730000
1X
0W
18
0[
0F
10
1&
#740000
0&
#750000
1W
0X
08
b10000 O
00
1F
b1111 Y
b1111110000000 \
1[
1&
#760000
0&
#770000
1X
0W
18
0[
0F
10
1&
#780000
0&
#790000
1W
0X
08
b1111 O
00
1F
b10000 Y
b11111100000000 \
1[
1&
#800000
0&
#810000
1X
0W
18
0[
0F
10
1&
#820000
0&
#830000
1W
0X
08
b1110 O
00
1F
b10001 Y
b111111000000000 \
1[
1&
#840000
0&
#850000
1X
0W
0%
18
0[
0F
13
10
1&
#860000
0&
#870000
1W
0X
08
b1101 O
00
1F
b10010 Y
b1111110000000001 \
1[
1&
#880000
0&
#890000
1X
0W
1%
18
0[
0F
03
10
1&
#900000
0&
#910000
1W
0X
08
b1100 O
00
1F
b10011 Y
b11111100000000010 \
1[
1&
#920000
0&
#930000
1X
0W
18
0[
0F
10
1&
#940000
0&
#950000
1W
0X
08
b1011 O
00
1F
b10100 Y
b111111000000000100 \
1[
1&
#960000
0&
#970000
1X
0W
18
0[
0F
10
1&
#980000
0&
#990000
1W
0X
08
b1010 O
00
1F
b10101 Y
b1111110000000001000 \
1[
1&
#1000000
0&
#1010000
1X
0W
18
0[
0F
10
1&
#1020000
0&
#1030000
1W
0X
08
b1001 O
00
1F
b10110 Y
b11111100000000010000 \
1[
1&
#1040000
0&
#1050000
1X
0W
18
0[
0F
10
1&
#1060000
0&
#1070000
1W
0X
08
b1000 O
00
1F
b10111 Y
b111111000000000100000 \
1[
1&
#1080000
0&
#1090000
1X
0W
18
0[
0F
10
1&
#1100000
0&
#1110000
1W
0X
08
b111 O
00
1F
b11000 Y
b1111110000000001000000 \
1[
1&
#1120000
0&
#1130000
1X
0W
0%
18
0[
0F
13
10
1&
#1140000
0&
#1150000
1W
0X
08
b110 O
00
1F
b11001 Y
b11111100000000010000001 \
1[
1&
#1160000
0&
#1170000
1X
0W
1%
18
0[
0F
03
10
1&
#1180000
0&
#1190000
1W
0X
08
b101 O
00
1F
b11010 Y
b111111000000000100000010 \
1[
1&
#1200000
0&
#1210000
1X
0W
18
0[
0F
10
1&
#1220000
0&
#1230000
1W
0X
08
b100 O
00
1F
b11011 Y
b1111110000000001000000100 \
1[
1&
#1240000
0&
#1250000
1X
0W
18
0[
0F
10
1&
#1260000
0&
#1270000
1W
0X
08
b11 O
00
1F
b11100 Y
b11111100000000010000001000 \
1[
1&
#1280000
0&
#1290000
1X
0W
0%
18
0[
0F
13
10
1&
#1300000
0&
#1310000
1W
0X
08
b10 O
00
1F
b11101 Y
b111111000000000100000010001 \
1[
1&
#1320000
0&
#1330000
1X
0W
1%
18
0[
0F
03
10
1&
#1340000
0&
#1350000
1W
0X
08
b1 O
00
1F
b11110 Y
b1111110000000001000000100010 \
1[
1&
#1360000
0&
#1370000
1X
0W
18
0[
0F
10
1&
#1380000
0&
#1390000
1W
0X
08
b0 O
00
1F
b11111 Y
b11111100000000010000001000100 \
1[
1&
#1400000
0&
#1410000
1X
0W
0%
18
0[
0F
13
10
1&
#1420000
0&
#1430000
1W
0X
08
b11 Q
00
1F
1_
b111111000000000100000010001010 ^
1S
b111111000000000100000010001001 U
b111111000000000100000010001001 Z
b100000 Y
b111111000000000100000010001001 \
1[
1&
#1440000
0&
#1450000
0W
b111111000000000100000010001001 "
b111111000000000100000010001001 1
b111111000000000100000010001001 R
b111111000000000100000010001001 V
1!
1T
1`
b111111000000000100000010001010 ]
0_
0S
0[
0F
b0 Q
09
1&
#1460000
0&
#1470000
b100 H
0!
0T
1&
#1480000
0&
#1490000
b101 H
b0 I
b0 J
1&
#1500000
0&
#1510000
b110 H
1G
1&
#1520000
0&
#1530000
0G
b1 Q
b11111 O
b0 P
1&
#1540000
0&
#1550000
b10 Q
19
1&
#1560000
0&
#1570000
1X
1%
18
03
10
1&
#1580000
0&
#1590000
1W
0X
08
b11110 O
00
b1 B
1F
b100001 Y
b1111110000000001000000100010010 \
1[
1&
#1600000
0&
#1610000
1X
0W
18
b1111110000000001000000100010100 ]
0[
0F
10
1&
#1620000
0&
#1630000
1W
0X
08
b11101 O
00
b10 B
1F
b100010 Y
b11111100000000010000001000100100 \
1[
1&
#1640000
0&
#1650000
1X
0W
14
18
b11111100000000010000001000101000 ]
0[
0F
10
1&
#1660000
0&
#1670000
1W
0X
08
b11100 O
00
b11 B
b1 #
b1 2
b1 7
b1 E
1F
b100011 Y
b11111000000000100000010001001000 \
1[
1&
#1680000
0&
#1690000
1X
0W
18
b11111000000000100000010001010000 ]
0[
0F
10
1&
#1700000
0&
#1710000
1W
0X
08
b11011 O
00
b100 B
b11 #
b11 2
b11 7
b11 E
1F
b100100 Y
b11110000000001000000100010010000 \
1[
1&
#1720000
0&
#1730000
1X
0W
18
b11110000000001000000100010100000 ]
0[
0F
10
1&
#1740000
0&
#1750000
1W
0X
08
b11010 O
00
b101 B
b111 #
b111 2
b111 7
b111 E
1F
b100101 Y
b11100000000010000001000100100000 \
1[
1&
#1760000
0&
#1770000
1X
0W
18
b11100000000010000001000101000000 ]
0[
0F
10
1&
#1780000
0&
#1790000
1W
0X
08
b11001 O
00
b110 B
b1111 #
b1111 2
b1111 7
b1111 E
1F
b100110 Y
b11000000000100000010001001000000 \
1[
1&
#1800000
0&
#1810000
1X
0W
18
b11000000000100000010001010000000 ]
0[
0F
10
1&
#1820000
0&
#1830000
1W
0X
08
b11000 O
00
b111 B
b11111 #
b11111 2
b11111 7
b11111 E
1F
b100111 Y
b10000000001000000100010010000000 \
1[
1&
#1840000
0&
#1850000
1X
0W
18
b10000000001000000100010100000000 ]
0[
0F
10
1&
#1860000
0&
#1870000
1W
0X
08
b10111 O
00
b1000 B
b111111 #
b111111 2
b111111 7
b111111 E
1F
b101000 Y
b10000001000100100000000 \
1[
1&
#1880000
0&
#1890000
1X
0W
04
18
b10000001000101000000000 ]
0[
0F
10
1&
#1900000
0&
#1910000
1W
0X
08
b10110 O
00
b1001 B
b1111110 #
b1111110 2
b1111110 7
b1111110 E
1F
b101001 Y
b100000010001001000000000 \
1[
1&
#1920000
0&
#1930000
1X
0W
18
b100000010001010000000000 ]
0[
0F
10
1&
#1940000
0&
#1950000
1W
0X
08
b10101 O
00
b1010 B
b11111100 #
b11111100 2
b11111100 7
b11111100 E
1F
b101010 Y
b1000000100010010000000000 \
1[
1&
#1960000
0&
#1970000
1X
0W
18
b1000000100010100000000000 ]
0[
0F
10
1&
#1980000
0&
#1990000
1W
0X
08
b10100 O
00
b1011 B
b111111000 #
b111111000 2
b111111000 7
b111111000 E
1F
b101011 Y
b10000001000100100000000000 \
1[
1&
#2000000
0&
#2010000
1X
0W
18
b10000001000101000000000000 ]
0[
0F
10
1&
#2020000
0&
#2030000
1W
0X
08
b10011 O
00
b1100 B
b1111110000 #
b1111110000 2
b1111110000 7
b1111110000 E
1F
b101100 Y
b100000010001001000000000000 \
1[
1&
#2040000
0&
#2050000
1X
0W
18
b100000010001010000000000000 ]
0[
0F
10
1&
#2060000
0&
#2070000
1W
0X
08
b10010 O
00
b1101 B
b11111100000 #
b11111100000 2
b11111100000 7
b11111100000 E
1F
b101101 Y
b1000000100010010000000000000 \
1[
1&
#2080000
0&
#2090000
1X
0W
18
b1000000100010100000000000000 ]
0[
0F
10
1&
#2100000
0&
#2110000
1W
0X
08
b10001 O
00
b1110 B
b111111000000 #
b111111000000 2
b111111000000 7
b111111000000 E
1F
b101110 Y
b10000001000100100000000000000 \
1[
1&
#2120000
0&
#2130000
1X
0W
18
b10000001000101000000000000000 ]
0[
0F
10
1&
#2140000
0&
#2150000
1W
0X
08
b10000 O
00
b1111 B
b1111110000000 #
b1111110000000 2
b1111110000000 7
b1111110000000 E
1F
b101111 Y
b100000010001001000000000000000 \
1[
1&
#2160000
0&
#2170000
1X
0W
18
b100000010001010000000000000000 ]
0[
0F
10
1&
#2180000
0&
#2190000
1W
0X
08
b1111 O
00
b10000 B
b11111100000000 #
b11111100000000 2
b11111100000000 7
b11111100000000 E
1F
b110000 Y
b1000000100010010000000000000000 \
1[
1&
#2200000
0&
#2210000
1X
0W
18
b1000000100010100000000000000000 ]
0[
0F
10
1&
#2220000
0&
#2230000
1W
0X
08
b1110 O
00
b10001 B
b111111000000000 #
b111111000000000 2
b111111000000000 7
b111111000000000 E
1F
b110001 Y
b10000001000100100000000000000000 \
1[
1&
#2240000
0&
#2250000
1X
0W
14
18
b10000001000101000000000000000000 ]
0[
0F
10
1&
#2260000
0&
#2270000
1W
0X
08
b1101 O
00
b10010 B
b1111110000000001 #
b1111110000000001 2
b1111110000000001 7
b1111110000000001 E
1F
b110010 Y
b10001001000000000000000000 \
1[
1&
#2280000
0&
#2290000
1X
0W
04
18
b10001010000000000000000000 ]
0[
0F
10
1&
#2300000
0&
#2310000
1W
0X
08
b1100 O
00
b10011 B
b11111100000000010 #
b11111100000000010 2
b11111100000000010 7
b11111100000000010 E
1F
b110011 Y
b100010010000000000000000000 \
1[
1&
#2320000
0&
#2330000
1X
0W
18
b100010100000000000000000000 ]
0[
0F
10
1&
#2340000
0&
#2350000
1W
0X
08
b1011 O
00
b10100 B
b111111000000000100 #
b111111000000000100 2
b111111000000000100 7
b111111000000000100 E
1F
b110100 Y
b1000100100000000000000000000 \
1[
1&
#2360000
0&
#2370000
1X
0W
18
b1000101000000000000000000000 ]
0[
0F
10
1&
#2380000
0&
#2390000
1W
0X
08
b1010 O
00
b10101 B
b1111110000000001000 #
b1111110000000001000 2
b1111110000000001000 7
b1111110000000001000 E
1F
b110101 Y
b10001001000000000000000000000 \
1[
1&
#2400000
0&
#2410000
1X
0W
18
b10001010000000000000000000000 ]
0[
0F
10
1&
#2420000
0&
#2430000
1W
0X
08
b1001 O
00
b10110 B
b11111100000000010000 #
b11111100000000010000 2
b11111100000000010000 7
b11111100000000010000 E
1F
b110110 Y
b100010010000000000000000000000 \
1[
1&
#2440000
0&
#2450000
1X
0W
18
b100010100000000000000000000000 ]
0[
0F
10
1&
#2460000
0&
#2470000
1W
0X
08
b1000 O
00
b10111 B
b111111000000000100000 #
b111111000000000100000 2
b111111000000000100000 7
b111111000000000100000 E
1F
b110111 Y
b1000100100000000000000000000000 \
1[
1&
#2480000
0&
#2490000
1X
0W
18
b1000101000000000000000000000000 ]
0[
0F
10
1&
#2500000
0&
#2510000
1W
0X
08
b111 O
00
b11000 B
b1111110000000001000000 #
b1111110000000001000000 2
b1111110000000001000000 7
b1111110000000001000000 E
1F
b111000 Y
b10001001000000000000000000000000 \
1[
1&
#2520000
0&
#2530000
1X
0W
14
18
b10001010000000000000000000000000 ]
0[
0F
10
1&
#2540000
0&
#2550000
1W
0X
08
b110 O
00
b11001 B
b11111100000000010000001 #
b11111100000000010000001 2
b11111100000000010000001 7
b11111100000000010000001 E
1F
b111001 Y
b10010000000000000000000000000 \
1[
1&
#2560000
0&
#2570000
1X
0W
04
18
b10100000000000000000000000000 ]
0[
0F
10
1&
#2580000
0&
#2590000
1W
0X
08
b101 O
00
b11010 B
b111111000000000100000010 #
b111111000000000100000010 2
b111111000000000100000010 7
b111111000000000100000010 E
1F
b111010 Y
b100100000000000000000000000000 \
1[
1&
#2600000
0&
#2610000
1X
0W
18
b101000000000000000000000000000 ]
0[
0F
10
1&
#2620000
0&
#2630000
1W
0X
08
b100 O
00
b11011 B
b1111110000000001000000100 #
b1111110000000001000000100 2
b1111110000000001000000100 7
b1111110000000001000000100 E
1F
b111011 Y
b1001000000000000000000000000000 \
1[
1&
#2640000
0&
#2650000
1X
0W
18
b1010000000000000000000000000000 ]
0[
0F
10
1&
#2660000
0&
#2670000
1W
0X
08
b11 O
00
b11100 B
b11111100000000010000001000 #
b11111100000000010000001000 2
b11111100000000010000001000 7
b11111100000000010000001000 E
1F
b111100 Y
b10010000000000000000000000000000 \
1[
1&
#2680000
0&
#2690000
1X
0W
14
18
b10100000000000000000000000000000 ]
0[
0F
10
1&
#2700000
0&
#2710000
1W
0X
08
b10 O
00
b11101 B
b111111000000000100000010001 #
b111111000000000100000010001 2
b111111000000000100000010001 7
b111111000000000100000010001 E
1F
b111101 Y
b100000000000000000000000000000 \
1[
1&
#2720000
0&
#2730000
1X
0W
04
18
b1000000000000000000000000000000 ]
0[
0F
10
1&
#2740000
0&
#2750000
1W
0X
08
b1 O
00
b11110 B
b1111110000000001000000100010 #
b1111110000000001000000100010 2
b1111110000000001000000100010 7
b1111110000000001000000100010 E
1F
b111110 Y
b1000000000000000000000000000000 \
1[
1&
#2760000
0&
#2770000
1X
0W
14
18
b10000000000000000000000000000000 ]
0[
0F
10
1&
#2780000
0&
#2790000
1W
0X
08
b0 O
00
b11111 B
b11111100000000010000001000101 #
b11111100000000010000001000101 2
b11111100000000010000001000101 7
b11111100000000010000001000101 E
1F
b111111 Y
b10000000000000000000000000000000 \
1[
1&
#2800000
0&
#2810000
1X
0W
04
18
b0 ]
0[
0F
10
1&
#2820000
0&
#2830000
1W
0X
08
b11 Q
00
b111 H
1$
1C
b100000 B
b111111000000000100000010001010 #
b111111000000000100000010001010 2
b111111000000000100000010001010 7
b111111000000000100000010001010 E
1F
b0 Y
b0 \
1[
1&
#2840000
0&
#2850000
0W
0[
0D
b0 H
0F
0$
0C
b0 Q
09
1&
